<?xml version="1.0" encoding="UTF-8" standalone="no"?>
<!DOCTYPE svg PUBLIC "-//W3C//DTD SVG 1.1//EN"
 "http://www.w3.org/Graphics/SVG/1.1/DTD/svg11.dtd">
<!-- Generated by graphviz version 2.40.1 (20161225.0304)
 -->
<!-- Title: models_diagram Pages: 1 -->
<svg width="785pt" height="446pt"
 viewBox="0.00 0.00 784.75 446.00" xmlns="http://www.w3.org/2000/svg" xmlns:xlink="http://www.w3.org/1999/xlink">
<g id="graph0" class="graph" transform="scale(1 1) rotate(0) translate(4 442)">
<title>models_diagram</title>
<polygon fill="transparent" stroke="transparent" points="-4,4 -4,-442 780.7479,-442 780.7479,4 -4,4"/>
<!-- _diagram_info -->
<g id="node1" class="node">
<title>_diagram_info</title>
<text text-anchor="start" x="8" y="-423.6" font-family="Times,serif" font-size="13.00" fill="#000000">Models diagram</text>
<text text-anchor="start" x="8" y="-409.6" font-family="Times,serif" font-size="13.00" fill="#000000">Date: May 16 2019 &#45; 23:30</text>
<text text-anchor="start" x="8" y="-395.6" font-family="Times,serif" font-size="13.00" fill="#000000">Migration version: 20190512112834</text>
<text text-anchor="start" x="8" y="-381.6" font-family="Times,serif" font-size="13.00" fill="#000000">Generated by RailRoady 1.5.3</text>
<text text-anchor="start" x="8" y="-367.6" font-family="Times,serif" font-size="13.00" fill="#000000">http://railroady.prestonlee.com</text>
</g>
<!-- Team -->
<g id="node2" class="node">
<title>Team</title>
<ellipse fill="none" stroke="#000000" cx="408" cy="-306" rx="31.3957" ry="18"/>
<text text-anchor="middle" x="408" y="-302.3" font-family="Times,serif" font-size="14.00" fill="#000000">Team</text>
</g>
<!-- TeamMember -->
<g id="node4" class="node">
<title>TeamMember</title>
<ellipse fill="none" stroke="#000000" cx="163" cy="-162" rx="61.99" ry="18"/>
<text text-anchor="middle" x="163" y="-158.3" font-family="Times,serif" font-size="14.00" fill="#000000">TeamMember</text>
</g>
<!-- Team&#45;&gt;TeamMember -->
<g id="edge5" class="edge">
<title>Team&#45;&gt;TeamMember</title>
<path fill="none" stroke="#8a51f6" d="M368.8091,-303.2059C327.5707,-298.4958 262.5818,-285.8616 218,-252 196.9468,-236.0093 182.1471,-209.4299 173.2434,-189.2911"/>
<ellipse fill="none" stroke="#8a51f6" cx="373.0018" cy="-303.6497" rx="4" ry="4"/>
<polygon fill="#8a51f6" stroke="#8a51f6" points="173.2129,-189.2183 173.4942,-178.256 171.2787,-184.6075 169.3446,-179.9967 169.3446,-179.9967 169.3446,-179.9967 171.2787,-184.6075 165.1949,-181.7375 173.2129,-189.2183 173.2129,-189.2183"/>
</g>
<!-- TeamProject -->
<g id="node7" class="node">
<title>TeamProject</title>
<ellipse fill="none" stroke="#000000" cx="690" cy="-90" rx="55.7903" ry="18"/>
<text text-anchor="middle" x="690" y="-86.3" font-family="Times,serif" font-size="14.00" fill="#000000">TeamProject</text>
</g>
<!-- Team&#45;&gt;TeamProject -->
<g id="edge1" class="edge">
<title>Team&#45;&gt;TeamProject</title>
<path fill="none" stroke="#8ac3b9" d="M446.2877,-300.3804C499.9874,-291.8224 594.025,-274.1539 620,-252 660.7364,-217.2563 678.4757,-154.4593 685.6325,-118.0978"/>
<ellipse fill="none" stroke="#8ac3b9" cx="442.303" cy="-301.0056" rx="4" ry="4"/>
<polygon fill="#8ac3b9" stroke="#8ac3b9" points="685.652,-117.9912 691.8808,-108.9661 686.5533,-113.0731 687.4545,-108.155 687.4545,-108.155 687.4545,-108.155 686.5533,-113.0731 683.0282,-107.3438 685.652,-117.9912 685.652,-117.9912"/>
</g>
<!-- User -->
<g id="node10" class="node">
<title>User</title>
<ellipse fill="none" stroke="#000000" cx="254" cy="-234" rx="27.0966" ry="18"/>
<text text-anchor="middle" x="254" y="-230.3" font-family="Times,serif" font-size="14.00" fill="#000000">User</text>
</g>
<!-- Team&#45;&gt;User -->
<g id="edge6" class="edge">
<title>Team&#45;&gt;User</title>
<path fill="none" stroke="#4866e2" d="M374.424,-290.3021C348.0312,-277.9626 311.5255,-260.895 285.6436,-248.7944"/>
<polygon fill="#4866e2" stroke="#4866e2" points="374.5394,-290.356 381.6923,-298.6679 379.0688,-292.4737 383.5982,-294.5914 383.5982,-294.5914 383.5982,-294.5914 379.0688,-292.4737 385.5042,-290.5149 374.5394,-290.356 374.5394,-290.356"/>
<polygon fill="#4866e2" stroke="#4866e2" points="285.3463,-248.6555 278.1934,-240.3437 280.8169,-246.5378 276.2875,-244.4201 276.2875,-244.4201 276.2875,-244.4201 280.8169,-246.5378 274.3816,-248.4966 285.3463,-248.6555 285.3463,-248.6555"/>
</g>
<!-- Project -->
<g id="node11" class="node">
<title>Project</title>
<ellipse fill="none" stroke="#000000" cx="555" cy="-162" rx="35.9954" ry="18"/>
<text text-anchor="middle" x="555" y="-158.3" font-family="Times,serif" font-size="14.00" fill="#000000">Project</text>
</g>
<!-- Team&#45;&gt;Project -->
<g id="edge2" class="edge">
<title>Team&#45;&gt;Project</title>
<path fill="none" stroke="#25886b" d="M448.6696,-300.543C500.1508,-292.7052 584.396,-276.4561 603,-252 619.0904,-230.8482 599.8184,-203.5653 581.1159,-184.6094"/>
<polygon fill="#25886b" stroke="#25886b" points="448.4205,-300.5797 437.8697,-297.5915 443.4744,-301.3114 438.5282,-302.0431 438.5282,-302.0431 438.5282,-302.0431 443.4744,-301.3114 439.1867,-306.4946 448.4205,-300.5797 448.4205,-300.5797"/>
<polygon fill="#25886b" stroke="#25886b" points="580.9792,-184.4775 576.9065,-174.296 577.3807,-181.0061 573.7822,-177.5346 573.7822,-177.5346 573.7822,-177.5346 577.3807,-181.0061 570.6579,-180.7733 580.9792,-184.4775 580.9792,-184.4775"/>
</g>
<!-- TeamRolesTeam -->
<g id="node12" class="node">
<title>TeamRolesTeam</title>
<ellipse fill="none" stroke="#000000" cx="408" cy="-234" rx="71.4873" ry="18"/>
<text text-anchor="middle" x="408" y="-230.3" font-family="Times,serif" font-size="14.00" fill="#000000">TeamRolesTeam</text>
</g>
<!-- Team&#45;&gt;TeamRolesTeam -->
<g id="edge3" class="edge">
<title>Team&#45;&gt;TeamRolesTeam</title>
<path fill="none" stroke="#2ba46c" d="M408,-279.8144C408,-274.2775 408,-268.4053 408,-262.7785"/>
<ellipse fill="none" stroke="#2ba46c" cx="408" cy="-283.8314" rx="4" ry="4"/>
<polygon fill="#2ba46c" stroke="#2ba46c" points="408.0001,-262.4133 412.5,-252.4132 408,-257.4133 408,-252.4133 408,-252.4133 408,-252.4133 408,-257.4133 403.5,-252.4133 408.0001,-262.4133 408.0001,-262.4133"/>
</g>
<!-- TeamRole -->
<g id="node13" class="node">
<title>TeamRole</title>
<ellipse fill="none" stroke="#000000" cx="546" cy="-234" rx="48.1917" ry="18"/>
<text text-anchor="middle" x="546" y="-230.3" font-family="Times,serif" font-size="14.00" fill="#000000">TeamRole</text>
</g>
<!-- Team&#45;&gt;TeamRole -->
<g id="edge4" class="edge">
<title>Team&#45;&gt;TeamRole</title>
<path fill="none" stroke="#5264ea" d="M440.2923,-289.1519C460.7325,-278.4874 487.2356,-264.6597 508.5905,-253.518"/>
<polygon fill="#5264ea" stroke="#5264ea" points="440.2757,-289.1605 429.3282,-289.7965 435.8427,-291.4733 431.4098,-293.7862 431.4098,-293.7862 431.4098,-293.7862 435.8427,-291.4733 433.4914,-297.7758 440.2757,-289.1605 440.2757,-289.1605"/>
<polygon fill="#5264ea" stroke="#5264ea" points="508.8304,-253.3929 519.7779,-252.7568 513.2634,-251.08 517.6963,-248.7671 517.6963,-248.7671 517.6963,-248.7671 513.2634,-251.08 515.6147,-244.7775 508.8304,-253.3929 508.8304,-253.3929"/>
</g>
<!-- Task -->
<g id="node3" class="node">
<title>Task</title>
<ellipse fill="none" stroke="#000000" cx="273" cy="-90" rx="27.8951" ry="18"/>
<text text-anchor="middle" x="273" y="-86.3" font-family="Times,serif" font-size="14.00" fill="#000000">Task</text>
</g>
<!-- Task&#45;&gt;Task -->
<g id="edge8" class="edge">
<title>Task&#45;&gt;Task</title>
<path fill="none" stroke="#36a02a" d="M301.401,-103.4984C311.1204,-103.5983 318.9475,-99.0989 318.9475,-90 318.9475,-81.5317 312.1678,-77.0474 303.3926,-76.5471"/>
<ellipse fill="none" stroke="#36a02a" cx="297.2796" cy="-102.955" rx="4" ry="4"/>
<polygon fill="#36a02a" stroke="#36a02a" points="303.2631,-76.5602 292.8605,-73.0908 298.2885,-77.064 293.3139,-77.5679 293.3139,-77.5679 293.3139,-77.5679 298.2885,-77.064 293.7674,-82.045 303.2631,-76.5602 303.2631,-76.5602"/>
</g>
<!-- TaskMember -->
<g id="node6" class="node">
<title>TaskMember</title>
<ellipse fill="none" stroke="#000000" cx="217" cy="-18" rx="58.4896" ry="18"/>
<text text-anchor="middle" x="217" y="-14.3" font-family="Times,serif" font-size="14.00" fill="#000000">TaskMember</text>
</g>
<!-- Task&#45;&gt;TaskMember -->
<g id="edge10" class="edge">
<title>Task&#45;&gt;TaskMember</title>
<path fill="none" stroke="#fe89d5" d="M255.275,-67.2107C249.4233,-59.6871 242.8765,-51.2698 236.875,-43.5536"/>
<ellipse fill="none" stroke="#fe89d5" cx="257.837" cy="-70.5047" rx="4" ry="4"/>
<polygon fill="#fe89d5" stroke="#fe89d5" points="236.7748,-43.4247 234.1875,-32.7684 233.7051,-39.4779 230.6354,-35.5312 230.6354,-35.5312 230.6354,-35.5312 233.7051,-39.4779 227.0833,-38.2939 236.7748,-43.4247 236.7748,-43.4247"/>
</g>
<!-- Comment -->
<g id="node9" class="node">
<title>Comment</title>
<ellipse fill="none" stroke="#000000" cx="347" cy="-18" rx="46.2923" ry="18"/>
<text text-anchor="middle" x="347" y="-14.3" font-family="Times,serif" font-size="14.00" fill="#000000">Comment</text>
</g>
<!-- Task&#45;&gt;Comment -->
<g id="edge9" class="edge">
<title>Task&#45;&gt;Comment</title>
<path fill="none" stroke="#e8b605" d="M294.6429,-68.9421C303.386,-60.4353 313.5199,-50.5752 322.5299,-41.8088"/>
<ellipse fill="none" stroke="#e8b605" cx="291.5604" cy="-71.9412" rx="4" ry="4"/>
<polygon fill="#e8b605" stroke="#e8b605" points="322.6114,-41.7295 332.9168,-37.9812 326.195,-38.2427 329.7787,-34.7559 329.7787,-34.7559 329.7787,-34.7559 326.195,-38.2427 326.6406,-31.5306 322.6114,-41.7295 322.6114,-41.7295"/>
</g>
<!-- Task&#45;&gt;User -->
<g id="edge11" class="edge">
<title>Task&#45;&gt;User</title>
<path fill="none" stroke="#3ec792" d="M272.3533,-118.0554C271.6409,-135.8789 270.1443,-159.3915 267,-180 265.6765,-188.6746 263.6512,-198.0054 261.5904,-206.4299"/>
<polygon fill="#3ec792" stroke="#3ec792" points="272.3543,-118.0214 277.1932,-108.1809 272.5251,-113.0243 272.6959,-108.0272 272.6959,-108.0272 272.6959,-108.0272 272.5251,-113.0243 268.1985,-107.8735 272.3543,-118.0214 272.3543,-118.0214"/>
<polygon fill="#3ec792" stroke="#3ec792" points="261.582,-206.4631 254.7441,-215.036 260.3429,-211.3072 259.1038,-216.1512 259.1038,-216.1512 259.1038,-216.1512 260.3429,-211.3072 263.4634,-217.2664 261.582,-206.4631 261.582,-206.4631"/>
</g>
<!-- ProjectOwner -->
<g id="node5" class="node">
<title>ProjectOwner</title>
<ellipse fill="none" stroke="#000000" cx="435" cy="-90" rx="59.5901" ry="18"/>
<text text-anchor="middle" x="435" y="-86.3" font-family="Times,serif" font-size="14.00" fill="#000000">ProjectOwner</text>
</g>
<!-- ApplicationRecord -->
<g id="node8" class="node">
<title>ApplicationRecord</title>
<ellipse fill="none" stroke="#000000" cx="309" cy="-399" rx="77.1866" ry="18"/>
<text text-anchor="middle" x="309" y="-395.3" font-family="Times,serif" font-size="14.00" fill="#000000">ApplicationRecord</text>
</g>
<!-- ApplicationRecord&#45;&gt;Team -->
<g id="edge7" class="edge">
<title>ApplicationRecord&#45;&gt;Team</title>
<path fill="none" stroke="#000000" d="M327.6211,-381.5074C345.9929,-364.2491 373.8134,-338.1147 391.4366,-321.5596"/>
</g>
<!-- ApplicationRecord&#45;&gt;Task -->
<g id="edge12" class="edge">
<title>ApplicationRecord&#45;&gt;Task</title>
<path fill="none" stroke="#000000" d="M280.1919,-382.2535C229.2025,-350.5865 125.299,-276.3738 92,-180 86.7748,-164.8773 82.4394,-156.8294 92,-144 110.468,-119.2178 199.8734,-101.6536 245.7368,-94.1141"/>
</g>
<!-- ApplicationRecord&#45;&gt;TeamMember -->
<g id="edge13" class="edge">
<title>ApplicationRecord&#45;&gt;TeamMember</title>
<path fill="none" stroke="#000000" d="M289.4433,-381.5632C261.9142,-355.9192 212.0791,-305.2777 185,-252 173.1933,-228.7705 167.5195,-198.9002 164.9447,-180.0961"/>
</g>
<!-- ApplicationRecord&#45;&gt;ProjectOwner -->
<g id="edge14" class="edge">
<title>ApplicationRecord&#45;&gt;ProjectOwner</title>
<path fill="none" stroke="#000000" d="M306.0163,-380.9934C301.2301,-346.1941 295.4067,-268.5146 328,-216 343.8007,-190.5419 364.4168,-201.7741 385,-180 405.2601,-158.5676 420.1747,-127.3751 428.218,-107.9073"/>
</g>
<!-- ApplicationRecord&#45;&gt;TaskMember -->
<g id="edge15" class="edge">
<title>ApplicationRecord&#45;&gt;TaskMember</title>
<path fill="none" stroke="#000000" d="M273.5063,-382.8722C243.0093,-368.5801 198.2027,-346.5359 161,-324 102.1386,-288.3441 35,-302.8186 35,-234 35,-234 35,-234 35,-162 35,-91.0874 121.0234,-49.6171 174.7881,-30.6233"/>
</g>
<!-- ApplicationRecord&#45;&gt;TeamProject -->
<g id="edge16" class="edge">
<title>ApplicationRecord&#45;&gt;TeamProject</title>
<path fill="none" stroke="#000000" d="M378.2961,-390.8446C436.1728,-381.5832 519.0867,-362.441 582,-324 649.5889,-282.7021 666.2647,-256.4449 687,-180 693.5483,-155.8584 693.0831,-126.7376 691.8133,-108.2918"/>
</g>
<!-- ApplicationRecord&#45;&gt;Comment -->
<g id="edge17" class="edge">
<title>ApplicationRecord&#45;&gt;Comment</title>
<path fill="none" stroke="#000000" d="M375.1293,-389.6626C503.5076,-369.6711 774,-317.6264 774,-234 774,-234 774,-234 774,-162 774,-121.1184 784.9915,-99.7816 755,-72 728.7256,-47.6616 493.3375,-28.3231 392.5096,-21.0819"/>
</g>
<!-- ApplicationRecord&#45;&gt;User -->
<g id="edge23" class="edge">
<title>ApplicationRecord&#45;&gt;User</title>
<path fill="none" stroke="#000000" d="M303.0093,-381.028C292.4296,-349.2888 270.5577,-283.6732 259.9833,-251.9498"/>
</g>
<!-- ApplicationRecord&#45;&gt;Project -->
<g id="edge27" class="edge">
<title>ApplicationRecord&#45;&gt;Project</title>
<path fill="none" stroke="#000000" d="M373.9593,-389.0814C448.1063,-373.9068 566.0733,-337.1367 620,-252 628.5616,-238.4834 626.7975,-230.4843 620,-216 611.7104,-198.3361 594.4899,-184.4508 579.8557,-175.1857"/>
</g>
<!-- User&#45;&gt;TeamMember -->
<g id="edge18" class="edge">
<title>User&#45;&gt;TeamMember</title>
<path fill="none" stroke="#58a05f" d="M229.8747,-214.9119C218.4632,-205.883 204.7304,-195.0175 192.6861,-185.4879"/>
<ellipse fill="none" stroke="#58a05f" cx="233.3174" cy="-217.6357" rx="4" ry="4"/>
<polygon fill="#58a05f" stroke="#58a05f" points="192.5089,-185.3478 187.4589,-175.6139 188.5878,-182.2453 184.6667,-179.1429 184.6667,-179.1429 184.6667,-179.1429 188.5878,-182.2453 181.8745,-182.6719 192.5089,-185.3478 192.5089,-185.3478"/>
</g>
<!-- User&#45;&gt;ProjectOwner -->
<g id="edge19" class="edge">
<title>User&#45;&gt;ProjectOwner</title>
<path fill="none" stroke="#4b4544" d="M284.4591,-220.3894C304.6323,-210.6343 331.1212,-196.3631 352,-180 376.0454,-161.1552 399.2539,-135.1011 414.9855,-115.8732"/>
<ellipse fill="none" stroke="#4b4544" cx="280.675" cy="-222.1863" rx="4" ry="4"/>
<polygon fill="#4b4544" stroke="#4b4544" points="415.1877,-115.622 424.9627,-110.6521 418.3222,-111.7265 421.4568,-107.831 421.4568,-107.831 421.4568,-107.831 418.3222,-111.7265 417.9509,-105.0099 415.1877,-115.622 415.1877,-115.622"/>
</g>
<!-- User&#45;&gt;TaskMember -->
<g id="edge22" class="edge">
<title>User&#45;&gt;TaskMember</title>
<path fill="none" stroke="#db3a85" d="M249.5396,-207.9608C242.5332,-167.0589 229.006,-88.0894 221.797,-46.0043"/>
<ellipse fill="none" stroke="#db3a85" cx="250.2337" cy="-212.0129" rx="4" ry="4"/>
<polygon fill="#db3a85" stroke="#db3a85" points="221.7966,-46.0015 224.5436,-35.3853 220.9524,-41.0733 220.1082,-36.1451 220.1082,-36.1451 220.1082,-36.1451 220.9524,-41.0733 215.6728,-36.9049 221.7966,-46.0015 221.7966,-46.0015"/>
</g>
<!-- User&#45;&gt;Comment -->
<g id="edge21" class="edge">
<title>User&#45;&gt;Comment</title>
<path fill="none" stroke="#fbf262" d="M270.598,-211.0155C287.4631,-186.6041 313.1554,-146.3246 328,-108 335.7629,-87.9584 340.6148,-64.1146 343.471,-46.0058"/>
<ellipse fill="none" stroke="#fbf262" cx="268.1725" cy="-214.4853" rx="4" ry="4"/>
<polygon fill="#fbf262" stroke="#fbf262" points="343.4758,-45.9722 349.3812,-36.7323 344.2024,-41.0253 344.929,-36.0784 344.929,-36.0784 344.929,-36.0784 344.2024,-41.0253 340.4767,-35.4245 343.4758,-45.9722 343.4758,-45.9722"/>
</g>
<!-- User&#45;&gt;Project -->
<g id="edge20" class="edge">
<title>User&#45;&gt;Project</title>
<path fill="none" stroke="#9640c2" d="M289.5019,-225.3258C301.7018,-222.3552 315.4462,-219.02 328,-216 392.262,-200.541 466.8191,-182.8522 512.4446,-172.0554"/>
<polygon fill="#9640c2" stroke="#9640c2" points="289.3929,-225.3523 278.6117,-223.3483 284.5351,-226.5363 279.6774,-227.7203 279.6774,-227.7203 279.6774,-227.7203 284.5351,-226.5363 280.743,-232.0923 289.3929,-225.3523 289.3929,-225.3523"/>
<polygon fill="#9640c2" stroke="#9640c2" points="512.5517,-172.0302 523.3191,-174.1071 517.4174,-170.8791 522.2831,-169.728 522.2831,-169.728 522.2831,-169.728 517.4174,-170.8791 521.2472,-165.3488 512.5517,-172.0302 512.5517,-172.0302"/>
</g>
<!-- Project&#45;&gt;Task -->
<g id="edge25" class="edge">
<title>Project&#45;&gt;Task</title>
<path fill="none" stroke="#fd552b" d="M514.9907,-151.7849C460.0369,-137.7541 362.0154,-112.7273 309.1609,-99.2326"/>
<ellipse fill="none" stroke="#fd552b" cx="519.0499" cy="-152.8212" rx="4" ry="4"/>
<polygon fill="#fd552b" stroke="#fd552b" points="308.9076,-99.168 300.3317,-92.3339 304.063,-97.931 299.2184,-96.6941 299.2184,-96.6941 299.2184,-96.6941 304.063,-97.931 298.1052,-101.0542 308.9076,-99.168 308.9076,-99.168"/>
</g>
<!-- Project&#45;&gt;ProjectOwner -->
<g id="edge24" class="edge">
<title>Project&#45;&gt;ProjectOwner</title>
<path fill="none" stroke="#7dc961" d="M524.9938,-143.9963C508.477,-134.0862 487.8779,-121.7267 470.5569,-111.3342"/>
<ellipse fill="none" stroke="#7dc961" cx="528.4328" cy="-146.0597" rx="4" ry="4"/>
<polygon fill="#7dc961" stroke="#7dc961" points="470.4119,-111.2472 464.1522,-102.2435 466.1244,-108.6747 461.837,-106.1022 461.837,-106.1022 461.837,-106.1022 466.1244,-108.6747 459.5217,-109.9609 470.4119,-111.2472 470.4119,-111.2472"/>
</g>
<!-- Project&#45;&gt;TeamProject -->
<g id="edge26" class="edge">
<title>Project&#45;&gt;TeamProject</title>
<path fill="none" stroke="#7d8bae" d="M587.0402,-144.9119C606.4191,-134.5765 631.2435,-121.3368 651.6611,-110.4474"/>
<ellipse fill="none" stroke="#7d8bae" cx="583.2905" cy="-146.9117" rx="4" ry="4"/>
<polygon fill="#7d8bae" stroke="#7d8bae" points="651.8731,-110.3344 662.8143,-109.5991 656.2848,-107.9814 660.6966,-105.6285 660.6966,-105.6285 660.6966,-105.6285 656.2848,-107.9814 658.5789,-101.6579 651.8731,-110.3344 651.8731,-110.3344"/>
</g>
</g>
</svg>
